^C:\USERS\DANIL\SOURCE\REPOS\STRINGCONSOLEAPPLICATION\STRINGCONSOLEAPPLICATION\STRINGCONSOLEAPPLICATION.CPP
C:\USERS\DANIL\SOURCE\REPOS\STRINGCONSOLEAPPLICATION\STRINGCONSOLEAPPLICATION\X64\DEBUG\VC143.PDB
C:\USERS\DANIL\SOURCE\REPOS\STRINGCONSOLEAPPLICATION\STRINGCONSOLEAPPLICATION\X64\DEBUG\VC143.IDB
C:\USERS\DANIL\SOURCE\REPOS\STRINGCONSOLEAPPLICATION\STRINGCONSOLEAPPLICATION\X64\DEBUG\STRINGCONSOLEAPPLICATION.OBJ
