^C:\USERS\DANIL\SOURCE\REPOS\STRINGCONSOLEAPPLICATION\STRINGCONSOLEAPPLICATION\X64\DEBUG\STRINGCONSOLEAPPLICATION.OBJ
C:\PROGRAM FILES (X86)\WINDOWS KITS\10\LIB\10.0.22000.0\UM\X64\KERNEL32.LIB
C:\PROGRAM FILES (X86)\WINDOWS KITS\10\LIB\10.0.22000.0\UM\X64\USER32.LIB
C:\PROGRAM FILES (X86)\WINDOWS KITS\10\LIB\10.0.22000.0\UM\X64\GDI32.LIB
C:\PROGRAM FILES (X86)\WINDOWS KITS\10\LIB\10.0.22000.0\UM\X64\WINSPOOL.LIB
C:\PROGRAM FILES (X86)\WINDOWS KITS\10\LIB\10.0.22000.0\UM\X64\COMDLG32.LIB
C:\PROGRAM FILES (X86)\WINDOWS KITS\10\LIB\10.0.22000.0\UM\X64\ADVAPI32.LIB
C:\PROGRAM FILES (X86)\WINDOWS KITS\10\LIB\10.0.22000.0\UM\X64\SHELL32.LIB
C:\PROGRAM FILES (X86)\WINDOWS KITS\10\LIB\10.0.22000.0\UM\X64\OLE32.LIB
C:\PROGRAM FILES (X86)\WINDOWS KITS\10\LIB\10.0.22000.0\UM\X64\OLEAUT32.LIB
C:\PROGRAM FILES (X86)\WINDOWS KITS\10\LIB\10.0.22000.0\UM\X64\UUID.LIB
C:\PROGRAM FILES (X86)\WINDOWS KITS\10\LIB\10.0.22000.0\UM\X64\ODBC32.LIB
C:\PROGRAM FILES (X86)\WINDOWS KITS\10\LIB\10.0.22000.0\UM\X64\ODBCCP32.LIB
C:\DEV\VCPKG\INSTALLED\X64-WINDOWS\DEBUG\LIB\BOOST_CHRONO-VC140-MT-GD.LIB
C:\DEV\VCPKG\INSTALLED\X64-WINDOWS\DEBUG\LIB\BOOST_CONTAINER-VC140-MT-GD.LIB
C:\DEV\VCPKG\INSTALLED\X64-WINDOWS\DEBUG\LIB\BOOST_CONTEXT-VC140-MT-GD.LIB
C:\DEV\VCPKG\INSTALLED\X64-WINDOWS\DEBUG\LIB\BOOST_COROUTINE-VC140-MT-GD.LIB
C:\DEV\VCPKG\INSTALLED\X64-WINDOWS\DEBUG\LIB\BOOST_DATE_TIME-VC140-MT-GD.LIB
C:\DEV\VCPKG\INSTALLED\X64-WINDOWS\DEBUG\LIB\BOOST_EXCEPTION-VC140-MT-GD.LIB
C:\DEV\VCPKG\INSTALLED\X64-WINDOWS\DEBUG\LIB\BOOST_REGEX-VC140-MT-GD.LIB
C:\DEV\VCPKG\INSTALLED\X64-WINDOWS\DEBUG\LIB\BOOST_SYSTEM-VC140-MT-GD.LIB
C:\DEV\VCPKG\INSTALLED\X64-WINDOWS\DEBUG\LIB\BSON-1.0.LIB
C:\DEV\VCPKG\INSTALLED\X64-WINDOWS\DEBUG\LIB\BSONCXX.LIB
C:\DEV\VCPKG\INSTALLED\X64-WINDOWS\DEBUG\LIB\MONGOC-1.0.LIB
C:\DEV\VCPKG\INSTALLED\X64-WINDOWS\DEBUG\LIB\MONGOCXX.LIB
C:\DEV\VCPKG\INSTALLED\X64-WINDOWS\DEBUG\LIB\ZLIBD.LIB
C:\USERS\DANIL\SOURCE\REPOS\STRINGCONSOLEAPPLICATION\STRINGCONSOLEAPPLICATION\X64\DEBUG\STRINGCONSOLEAPPLICATION.OBJ
C:\WINDOWS\GLOBALIZATION\SORTING\SORTDEFAULT.NLS
C:\PROGRAM FILES\MICROSOFT VISUAL STUDIO\2022\COMMUNITY\VC\TOOLS\MSVC\14.34.31933\LIB\X64\MSVCPRTD.LIB
C:\PROGRAM FILES\MICROSOFT VISUAL STUDIO\2022\COMMUNITY\VC\TOOLS\MSVC\14.34.31933\LIB\X64\MSVCRTD.LIB
C:\PROGRAM FILES\MICROSOFT VISUAL STUDIO\2022\COMMUNITY\VC\TOOLS\MSVC\14.34.31933\LIB\X64\OLDNAMES.LIB
C:\PROGRAM FILES\MICROSOFT VISUAL STUDIO\2022\COMMUNITY\VC\TOOLS\MSVC\14.34.31933\LIB\X64\VCRUNTIMED.LIB
C:\PROGRAM FILES (X86)\WINDOWS KITS\10\LIB\10.0.22000.0\UCRT\X64\UCRTD.LIB
C:\PROGRAM FILES\MICROSOFT VISUAL STUDIO\2022\COMMUNITY\VC\TOOLS\MSVC\14.34.31933\BIN\HOSTX64\X64\CVTRES.EXE
C:\WINDOWS\SYSTEM32\TZRES.DLL
C:\PROGRAM FILES\MICROSOFT VISUAL STUDIO\2022\COMMUNITY\VC\TOOLS\MSVC\14.34.31933\BIN\HOSTX64\X64\VCTIP.EXE
C:\USERS\DANIL\SOURCE\REPOS\STRINGCONSOLEAPPLICATION\STRINGCONSOLEAPPLICATION\X64\DEBUG\VC143.PDB
